[
    {
        "page": 1,
        "pages": 325,
        "per_page": 50,
        "total": 16226,
        "sourceid": "2",
        "sourcename": "World Development Indicators",
        "lastupdated": "2021-09-15"
    },
    [
        {
            "indicator": {
                "id": "IC.REG.DURS",
                "value": "Time required to start a business (days)"
            },
            "country": {
                "id": "ZH",
                "value": "Africa Eastern and Southern"
            },
            "countryiso3code": "AFE",
            "date": "2020",
            "value": null,
            "unit": "",
            "obs_status": "",
            "decimal": 0
        },
        {
            "indicator": {
                "id": "IC.REG.DURS",
                "value": "Time required to start a business (days)"
            },
            "country": {
                "id": "ZH",
                "value": "Africa Eastern and Southern"
            },
            "countryiso3code": "AFE",
            "date": "2019",
            "value": 26.8269230769231,
            "unit": "",
            "obs_status": "",
            "decimal": 0
        },
        {
            "indicator": {
                "id": "IC.REG.DURS",
                "value": "Time required to start a business (days)"
            },
            "country": {
                "id": "ZH",
                "value": "Africa Eastern and Southern"
            },
            "countryiso3code": "AFE",
            "date": "2018",
            "value": 27.8269230769231,
            "unit": "",
            "obs_status": "",
            "decimal": 0
        },
        {
            "indicator": {
                "id": "IC.REG.DURS",
                "value": "Time required to start a business (days)"
            },
            "country": {
                "id": "ZH",
                "value": "Africa Eastern and Southern"
            },
            "countryiso3code": "AFE",
            "date": "2017",
            "value": 29.2884615384615,
            "unit": "",
            "obs_status": "",
            "decimal": 0
        },
        {
            "indicator": {
                "id": "IC.REG.DURS",
                "value": "Time required to start a business (days)"
            },
            "country": {
                "id": "ZH",
                "value": "Africa Eastern and Southern"
            },
            "countryiso3code": "AFE",
            "date": "2016",
            "value": 31.5769230769231,
            "unit": "",
            "obs_status": "",
            "decimal": 0
        },
        {
            "indicator": {
                "id": "IC.REG.DURS",
                "value": "Time required to start a business (days)"
            },
            "country": {
                "id": "ZH",
                "value": "Africa Eastern and Southern"
            },
            "countryiso3code": "AFE",
            "date": "2015",
            "value": 32.0384615384615,
            "unit": "",
            "obs_status": "",
            "decimal": 0
        },
        {
            "indicator": {
                "id": "IC.REG.DURS",
                "value": "Time required to start a business (days)"
            },
            "country": {
                "id": "ZH",
                "value": "Africa Eastern and Southern"
            },
            "countryiso3code": "AFE",
            "date": "2014",
            "value": 32.32,
            "unit": "",
            "obs_status": "",
            "decimal": 0
        },
        {
            "indicator": {
                "id": "IC.REG.DURS",
                "value": "Time required to start a business (days)"
            },
            "country": {
                "id": "ZH",
                "value": "Africa Eastern and Southern"
            },
            "countryiso3code": "AFE",
            "date": "2013",
            "value": 33.12,
            "unit": "",
            "obs_status": "",
            "decimal": 0
        },
        {
            "indicator": {
                "id": "IC.REG.DURS",
                "value": "Time required to start a business (days)"
            },
            "country": {
                "id": "ZH",
                "value": "Africa Eastern and Southern"
            },
            "countryiso3code": "AFE",
            "date": "2012",
            "value": 35.4,
            "unit": "",
            "obs_status": "",
            "decimal": 0
        },
        {
            "indicator": {
                "id": "IC.REG.DURS",
                "value": "Time required to start a business (days)"
            },
            "country": {
                "id": "ZH",
                "value": "Africa Eastern and Southern"
            },
            "countryiso3code": "AFE",
            "date": "2011",
            "value": 37.3958333333333,
            "unit": "",
            "obs_status": "",
            "decimal": 0
        },
        {
            "indicator": {
                "id": "IC.REG.DURS",
                "value": "Time required to start a business (days)"
            },
            "country": {
                "id": "ZH",
                "value": "Africa Eastern and Southern"
            },
            "countryiso3code": "AFE",
            "date": "2010",
            "value": 43.7291666666667,
            "unit": "",
            "obs_status": "",
            "decimal": 0
        },
        {
            "indicator": {
                "id": "IC.REG.DURS",
                "value": "Time required to start a business (days)"
            },
            "country": {
                "id": "ZH",
                "value": "Africa Eastern and Southern"
            },
            "countryiso3code": "AFE",
            "date": "2009",
            "value": 46.5208333333333,
            "unit": "",
            "obs_status": "",
            "decimal": 0
        },
        {
            "indicator": {
                "id": "IC.REG.DURS",
                "value": "Time required to start a business (days)"
            },
            "country": {
                "id": "ZH",
                "value": "Africa Eastern and Southern"
            },
            "countryiso3code": "AFE",
            "date": "2008",
            "value": 47.7708333333333,
            "unit": "",
            "obs_status": "",
            "decimal": 0
        },
        {
            "indicator": {
                "id": "IC.REG.DURS",
                "value": "Time required to start a business (days)"
            },
            "country": {
                "id": "ZH",
                "value": "Africa Eastern and Southern"
            },
            "countryiso3code": "AFE",
            "date": "2007",
            "value": 54.4375,
            "unit": "",
            "obs_status": "",
            "decimal": 0
        },
        {
            "indicator": {
                "id": "IC.REG.DURS",
                "value": "Time required to start a business (days)"
            },
            "country": {
                "id": "ZH",
                "value": "Africa Eastern and Southern"
            },
            "countryiso3code": "AFE",
            "date": "2006",
            "value": 60.0625,
            "unit": "",
            "obs_status": "",
            "decimal": 0
        },
        {
            "indicator": {
                "id": "IC.REG.DURS",
                "value": "Time required to start a business (days)"
            },
            "country": {
                "id": "ZH",
                "value": "Africa Eastern and Southern"
            },
            "countryiso3code": "AFE",
            "date": "2005",
            "value": 66.7708333333333,
            "unit": "",
            "obs_status": "",
            "decimal": 0
        },
        {
            "indicator": {
                "id": "IC.REG.DURS",
                "value": "Time required to start a business (days)"
            },
            "country": {
                "id": "ZH",
                "value": "Africa Eastern and Southern"
            },
            "countryiso3code": "AFE",
            "date": "2004",
            "value": 71.6428571428571,
            "unit": "",
            "obs_status": "",
            "decimal": 0
        },
        {
            "indicator": {
                "id": "IC.REG.DURS",
                "value": "Time required to start a business (days)"
            },
            "country": {
                "id": "ZH",
                "value": "Africa Eastern and Southern"
            },
            "countryiso3code": "AFE",
            "date": "2003",
            "value": 77.6176470588235,
            "unit": "",
            "obs_status": "",
            "decimal": 0
        },
        {
            "indicator": {
                "id": "IC.REG.DURS",
                "value": "Time required to start a business (days)"
            },
            "country": {
                "id": "ZH",
                "value": "Africa Eastern and Southern"
            },
            "countryiso3code": "AFE",
            "date": "2002",
            "value": null,
            "unit": "",
            "obs_status": "",
            "decimal": 0
        },
        {
            "indicator": {
                "id": "IC.REG.DURS",
                "value": "Time required to start a business (days)"
            },
            "country": {
                "id": "ZH",
                "value": "Africa Eastern and Southern"
            },
            "countryiso3code": "AFE",
            "date": "2001",
            "value": null,
            "unit": "",
            "obs_status": "",
            "decimal": 0
        },
        {
            "indicator": {
                "id": "IC.REG.DURS",
                "value": "Time required to start a business (days)"
            },
            "country": {
                "id": "ZH",
                "value": "Africa Eastern and Southern"
            },
            "countryiso3code": "AFE",
            "date": "2000",
            "value": null,
            "unit": "",
            "obs_status": "",
            "decimal": 0
        },
        {
            "indicator": {
                "id": "IC.REG.DURS",
                "value": "Time required to start a business (days)"
            },
            "country": {
                "id": "ZH",
                "value": "Africa Eastern and Southern"
            },
            "countryiso3code": "AFE",
            "date": "1999",
            "value": null,
            "unit": "",
            "obs_status": "",
            "decimal": 0
        },
        {
            "indicator": {
                "id": "IC.REG.DURS",
                "value": "Time required to start a business (days)"
            },
            "country": {
                "id": "ZH",
                "value": "Africa Eastern and Southern"
            },
            "countryiso3code": "AFE",
            "date": "1998",
            "value": null,
            "unit": "",
            "obs_status": "",
            "decimal": 0
        },
        {
            "indicator": {
                "id": "IC.REG.DURS",
                "value": "Time required to start a business (days)"
            },
            "country": {
                "id": "ZH",
                "value": "Africa Eastern and Southern"
            },
            "countryiso3code": "AFE",
            "date": "1997",
            "value": null,
            "unit": "",
            "obs_status": "",
            "decimal": 0
        },
        {
            "indicator": {
                "id": "IC.REG.DURS",
                "value": "Time required to start a business (days)"
            },
            "country": {
                "id": "ZH",
                "value": "Africa Eastern and Southern"
            },
            "countryiso3code": "AFE",
            "date": "1996",
            "value": null,
            "unit": "",
            "obs_status": "",
            "decimal": 0
        },
        {
            "indicator": {
                "id": "IC.REG.DURS",
                "value": "Time required to start a business (days)"
            },
            "country": {
                "id": "ZH",
                "value": "Africa Eastern and Southern"
            },
            "countryiso3code": "AFE",
            "date": "1995",
            "value": null,
            "unit": "",
            "obs_status": "",
            "decimal": 0
        },
        {
            "indicator": {
                "id": "IC.REG.DURS",
                "value": "Time required to start a business (days)"
            },
            "country": {
                "id": "ZH",
                "value": "Africa Eastern and Southern"
            },
            "countryiso3code": "AFE",
            "date": "1994",
            "value": null,
            "unit": "",
            "obs_status": "",
            "decimal": 0
        },
        {
            "indicator": {
                "id": "IC.REG.DURS",
                "value": "Time required to start a business (days)"
            },
            "country": {
                "id": "ZH",
                "value": "Africa Eastern and Southern"
            },
            "countryiso3code": "AFE",
            "date": "1993",
            "value": null,
            "unit": "",
            "obs_status": "",
            "decimal": 0
        },
        {
            "indicator": {
                "id": "IC.REG.DURS",
                "value": "Time required to start a business (days)"
            },
            "country": {
                "id": "ZH",
                "value": "Africa Eastern and Southern"
            },
            "countryiso3code": "AFE",
            "date": "1992",
            "value": null,
            "unit": "",
            "obs_status": "",
            "decimal": 0
        },
        {
            "indicator": {
                "id": "IC.REG.DURS",
                "value": "Time required to start a business (days)"
            },
            "country": {
                "id": "ZH",
                "value": "Africa Eastern and Southern"
            },
            "countryiso3code": "AFE",
            "date": "1991",
            "value": null,
            "unit": "",
            "obs_status": "",
            "decimal": 0
        },
        {
            "indicator": {
                "id": "IC.REG.DURS",
                "value": "Time required to start a business (days)"
            },
            "country": {
                "id": "ZH",
                "value": "Africa Eastern and Southern"
            },
            "countryiso3code": "AFE",
            "date": "1990",
            "value": null,
            "unit": "",
            "obs_status": "",
            "decimal": 0
        },
        {
            "indicator": {
                "id": "IC.REG.DURS",
                "value": "Time required to start a business (days)"
            },
            "country": {
                "id": "ZH",
                "value": "Africa Eastern and Southern"
            },
            "countryiso3code": "AFE",
            "date": "1989",
            "value": null,
            "unit": "",
            "obs_status": "",
            "decimal": 0
        },
        {
            "indicator": {
                "id": "IC.REG.DURS",
                "value": "Time required to start a business (days)"
            },
            "country": {
                "id": "ZH",
                "value": "Africa Eastern and Southern"
            },
            "countryiso3code": "AFE",
            "date": "1988",
            "value": null,
            "unit": "",
            "obs_status": "",
            "decimal": 0
        },
        {
            "indicator": {
                "id": "IC.REG.DURS",
                "value": "Time required to start a business (days)"
            },
            "country": {
                "id": "ZH",
                "value": "Africa Eastern and Southern"
            },
            "countryiso3code": "AFE",
            "date": "1987",
            "value": null,
            "unit": "",
            "obs_status": "",
            "decimal": 0
        },
        {
            "indicator": {
                "id": "IC.REG.DURS",
                "value": "Time required to start a business (days)"
            },
            "country": {
                "id": "ZH",
                "value": "Africa Eastern and Southern"
            },
            "countryiso3code": "AFE",
            "date": "1986",
            "value": null,
            "unit": "",
            "obs_status": "",
            "decimal": 0
        },
        {
            "indicator": {
                "id": "IC.REG.DURS",
                "value": "Time required to start a business (days)"
            },
            "country": {
                "id": "ZH",
                "value": "Africa Eastern and Southern"
            },
            "countryiso3code": "AFE",
            "date": "1985",
            "value": null,
            "unit": "",
            "obs_status": "",
            "decimal": 0
        },
        {
            "indicator": {
                "id": "IC.REG.DURS",
                "value": "Time required to start a business (days)"
            },
            "country": {
                "id": "ZH",
                "value": "Africa Eastern and Southern"
            },
            "countryiso3code": "AFE",
            "date": "1984",
            "value": null,
            "unit": "",
            "obs_status": "",
            "decimal": 0
        },
        {
            "indicator": {
                "id": "IC.REG.DURS",
                "value": "Time required to start a business (days)"
            },
            "country": {
                "id": "ZH",
                "value": "Africa Eastern and Southern"
            },
            "countryiso3code": "AFE",
            "date": "1983",
            "value": null,
            "unit": "",
            "obs_status": "",
            "decimal": 0
        },
        {
            "indicator": {
                "id": "IC.REG.DURS",
                "value": "Time required to start a business (days)"
            },
            "country": {
                "id": "ZH",
                "value": "Africa Eastern and Southern"
            },
            "countryiso3code": "AFE",
            "date": "1982",
            "value": null,
            "unit": "",
            "obs_status": "",
            "decimal": 0
        },
        {
            "indicator": {
                "id": "IC.REG.DURS",
                "value": "Time required to start a business (days)"
            },
            "country": {
                "id": "ZH",
                "value": "Africa Eastern and Southern"
            },
            "countryiso3code": "AFE",
            "date": "1981",
            "value": null,
            "unit": "",
            "obs_status": "",
            "decimal": 0
        },
        {
            "indicator": {
                "id": "IC.REG.DURS",
                "value": "Time required to start a business (days)"
            },
            "country": {
                "id": "ZH",
                "value": "Africa Eastern and Southern"
            },
            "countryiso3code": "AFE",
            "date": "1980",
            "value": null,
            "unit": "",
            "obs_status": "",
            "decimal": 0
        },
        {
            "indicator": {
                "id": "IC.REG.DURS",
                "value": "Time required to start a business (days)"
            },
            "country": {
                "id": "ZH",
                "value": "Africa Eastern and Southern"
            },
            "countryiso3code": "AFE",
            "date": "1979",
            "value": null,
            "unit": "",
            "obs_status": "",
            "decimal": 0
        },
        {
            "indicator": {
                "id": "IC.REG.DURS",
                "value": "Time required to start a business (days)"
            },
            "country": {
                "id": "ZH",
                "value": "Africa Eastern and Southern"
            },
            "countryiso3code": "AFE",
            "date": "1978",
            "value": null,
            "unit": "",
            "obs_status": "",
            "decimal": 0
        },
        {
            "indicator": {
                "id": "IC.REG.DURS",
                "value": "Time required to start a business (days)"
            },
            "country": {
                "id": "ZH",
                "value": "Africa Eastern and Southern"
            },
            "countryiso3code": "AFE",
            "date": "1977",
            "value": null,
            "unit": "",
            "obs_status": "",
            "decimal": 0
        },
        {
            "indicator": {
                "id": "IC.REG.DURS",
                "value": "Time required to start a business (days)"
            },
            "country": {
                "id": "ZH",
                "value": "Africa Eastern and Southern"
            },
            "countryiso3code": "AFE",
            "date": "1976",
            "value": null,
            "unit": "",
            "obs_status": "",
            "decimal": 0
        },
        {
            "indicator": {
                "id": "IC.REG.DURS",
                "value": "Time required to start a business (days)"
            },
            "country": {
                "id": "ZH",
                "value": "Africa Eastern and Southern"
            },
            "countryiso3code": "AFE",
            "date": "1975",
            "value": null,
            "unit": "",
            "obs_status": "",
            "decimal": 0
        },
        {
            "indicator": {
                "id": "IC.REG.DURS",
                "value": "Time required to start a business (days)"
            },
            "country": {
                "id": "ZH",
                "value": "Africa Eastern and Southern"
            },
            "countryiso3code": "AFE",
            "date": "1974",
            "value": null,
            "unit": "",
            "obs_status": "",
            "decimal": 0
        },
        {
            "indicator": {
                "id": "IC.REG.DURS",
                "value": "Time required to start a business (days)"
            },
            "country": {
                "id": "ZH",
                "value": "Africa Eastern and Southern"
            },
            "countryiso3code": "AFE",
            "date": "1973",
            "value": null,
            "unit": "",
            "obs_status": "",
            "decimal": 0
        },
        {
            "indicator": {
                "id": "IC.REG.DURS",
                "value": "Time required to start a business (days)"
            },
            "country": {
                "id": "ZH",
                "value": "Africa Eastern and Southern"
            },
            "countryiso3code": "AFE",
            "date": "1972",
            "value": null,
            "unit": "",
            "obs_status": "",
            "decimal": 0
        },
        {
            "indicator": {
                "id": "IC.REG.DURS",
                "value": "Time required to start a business (days)"
            },
            "country": {
                "id": "ZH",
                "value": "Africa Eastern and Southern"
            },
            "countryiso3code": "AFE",
            "date": "1971",
            "value": null,
            "unit": "",
            "obs_status": "",
            "decimal": 0
        }
    ]
]