[
    {
        "page": 1,
        "pages": 325,
        "per_page": 50,
        "total": 16226,
        "sourceid": "2",
        "sourcename": "World Development Indicators",
        "lastupdated": "2021-09-15"
    },
    [
        {
            "indicator": {
                "id": "IC.REG.COST.PC.ZS",
                "value": "Cost of business start-up procedures (% of GNI per capita)"
            },
            "country": {
                "id": "ZH",
                "value": "Africa Eastern and Southern"
            },
            "countryiso3code": "AFE",
            "date": "2020",
            "value": null,
            "unit": "",
            "obs_status": "",
            "decimal": 1
        },
        {
            "indicator": {
                "id": "IC.REG.COST.PC.ZS",
                "value": "Cost of business start-up procedures (% of GNI per capita)"
            },
            "country": {
                "id": "ZH",
                "value": "Africa Eastern and Southern"
            },
            "countryiso3code": "AFE",
            "date": "2019",
            "value": 34.2307692307692,
            "unit": "",
            "obs_status": "",
            "decimal": 1
        },
        {
            "indicator": {
                "id": "IC.REG.COST.PC.ZS",
                "value": "Cost of business start-up procedures (% of GNI per capita)"
            },
            "country": {
                "id": "ZH",
                "value": "Africa Eastern and Southern"
            },
            "countryiso3code": "AFE",
            "date": "2018",
            "value": 41.7384615384616,
            "unit": "",
            "obs_status": "",
            "decimal": 1
        },
        {
            "indicator": {
                "id": "IC.REG.COST.PC.ZS",
                "value": "Cost of business start-up procedures (% of GNI per capita)"
            },
            "country": {
                "id": "ZH",
                "value": "Africa Eastern and Southern"
            },
            "countryiso3code": "AFE",
            "date": "2017",
            "value": 51.0769230769231,
            "unit": "",
            "obs_status": "",
            "decimal": 1
        },
        {
            "indicator": {
                "id": "IC.REG.COST.PC.ZS",
                "value": "Cost of business start-up procedures (% of GNI per capita)"
            },
            "country": {
                "id": "ZH",
                "value": "Africa Eastern and Southern"
            },
            "countryiso3code": "AFE",
            "date": "2016",
            "value": 55.6307692307692,
            "unit": "",
            "obs_status": "",
            "decimal": 1
        },
        {
            "indicator": {
                "id": "IC.REG.COST.PC.ZS",
                "value": "Cost of business start-up procedures (% of GNI per capita)"
            },
            "country": {
                "id": "ZH",
                "value": "Africa Eastern and Southern"
            },
            "countryiso3code": "AFE",
            "date": "2015",
            "value": 55.0961538461538,
            "unit": "",
            "obs_status": "",
            "decimal": 1
        },
        {
            "indicator": {
                "id": "IC.REG.COST.PC.ZS",
                "value": "Cost of business start-up procedures (% of GNI per capita)"
            },
            "country": {
                "id": "ZH",
                "value": "Africa Eastern and Southern"
            },
            "countryiso3code": "AFE",
            "date": "2014",
            "value": 53.732,
            "unit": "",
            "obs_status": "",
            "decimal": 1
        },
        {
            "indicator": {
                "id": "IC.REG.COST.PC.ZS",
                "value": "Cost of business start-up procedures (% of GNI per capita)"
            },
            "country": {
                "id": "ZH",
                "value": "Africa Eastern and Southern"
            },
            "countryiso3code": "AFE",
            "date": "2013",
            "value": 67.812,
            "unit": "",
            "obs_status": "",
            "decimal": 1
        },
        {
            "indicator": {
                "id": "IC.REG.COST.PC.ZS",
                "value": "Cost of business start-up procedures (% of GNI per capita)"
            },
            "country": {
                "id": "ZH",
                "value": "Africa Eastern and Southern"
            },
            "countryiso3code": "AFE",
            "date": "2012",
            "value": 68.172,
            "unit": "",
            "obs_status": "",
            "decimal": 1
        },
        {
            "indicator": {
                "id": "IC.REG.COST.PC.ZS",
                "value": "Cost of business start-up procedures (% of GNI per capita)"
            },
            "country": {
                "id": "ZH",
                "value": "Africa Eastern and Southern"
            },
            "countryiso3code": "AFE",
            "date": "2011",
            "value": 82.8916666666667,
            "unit": "",
            "obs_status": "",
            "decimal": 1
        },
        {
            "indicator": {
                "id": "IC.REG.COST.PC.ZS",
                "value": "Cost of business start-up procedures (% of GNI per capita)"
            },
            "country": {
                "id": "ZH",
                "value": "Africa Eastern and Southern"
            },
            "countryiso3code": "AFE",
            "date": "2010",
            "value": 101.808333333333,
            "unit": "",
            "obs_status": "",
            "decimal": 1
        },
        {
            "indicator": {
                "id": "IC.REG.COST.PC.ZS",
                "value": "Cost of business start-up procedures (% of GNI per capita)"
            },
            "country": {
                "id": "ZH",
                "value": "Africa Eastern and Southern"
            },
            "countryiso3code": "AFE",
            "date": "2009",
            "value": 114.329166666667,
            "unit": "",
            "obs_status": "",
            "decimal": 1
        },
        {
            "indicator": {
                "id": "IC.REG.COST.PC.ZS",
                "value": "Cost of business start-up procedures (% of GNI per capita)"
            },
            "country": {
                "id": "ZH",
                "value": "Africa Eastern and Southern"
            },
            "countryiso3code": "AFE",
            "date": "2008",
            "value": 133.420833333333,
            "unit": "",
            "obs_status": "",
            "decimal": 1
        },
        {
            "indicator": {
                "id": "IC.REG.COST.PC.ZS",
                "value": "Cost of business start-up procedures (% of GNI per capita)"
            },
            "country": {
                "id": "ZH",
                "value": "Africa Eastern and Southern"
            },
            "countryiso3code": "AFE",
            "date": "2007",
            "value": 150.8125,
            "unit": "",
            "obs_status": "",
            "decimal": 1
        },
        {
            "indicator": {
                "id": "IC.REG.COST.PC.ZS",
                "value": "Cost of business start-up procedures (% of GNI per capita)"
            },
            "country": {
                "id": "ZH",
                "value": "Africa Eastern and Southern"
            },
            "countryiso3code": "AFE",
            "date": "2006",
            "value": 156.6125,
            "unit": "",
            "obs_status": "",
            "decimal": 1
        },
        {
            "indicator": {
                "id": "IC.REG.COST.PC.ZS",
                "value": "Cost of business start-up procedures (% of GNI per capita)"
            },
            "country": {
                "id": "ZH",
                "value": "Africa Eastern and Southern"
            },
            "countryiso3code": "AFE",
            "date": "2005",
            "value": 176.95,
            "unit": "",
            "obs_status": "",
            "decimal": 1
        },
        {
            "indicator": {
                "id": "IC.REG.COST.PC.ZS",
                "value": "Cost of business start-up procedures (% of GNI per capita)"
            },
            "country": {
                "id": "ZH",
                "value": "Africa Eastern and Southern"
            },
            "countryiso3code": "AFE",
            "date": "2004",
            "value": 221.147619047619,
            "unit": "",
            "obs_status": "",
            "decimal": 1
        },
        {
            "indicator": {
                "id": "IC.REG.COST.PC.ZS",
                "value": "Cost of business start-up procedures (% of GNI per capita)"
            },
            "country": {
                "id": "ZH",
                "value": "Africa Eastern and Southern"
            },
            "countryiso3code": "AFE",
            "date": "2003",
            "value": 312.517647058824,
            "unit": "",
            "obs_status": "",
            "decimal": 1
        },
        {
            "indicator": {
                "id": "IC.REG.COST.PC.ZS",
                "value": "Cost of business start-up procedures (% of GNI per capita)"
            },
            "country": {
                "id": "ZH",
                "value": "Africa Eastern and Southern"
            },
            "countryiso3code": "AFE",
            "date": "2002",
            "value": null,
            "unit": "",
            "obs_status": "",
            "decimal": 1
        },
        {
            "indicator": {
                "id": "IC.REG.COST.PC.ZS",
                "value": "Cost of business start-up procedures (% of GNI per capita)"
            },
            "country": {
                "id": "ZH",
                "value": "Africa Eastern and Southern"
            },
            "countryiso3code": "AFE",
            "date": "2001",
            "value": null,
            "unit": "",
            "obs_status": "",
            "decimal": 1
        },
        {
            "indicator": {
                "id": "IC.REG.COST.PC.ZS",
                "value": "Cost of business start-up procedures (% of GNI per capita)"
            },
            "country": {
                "id": "ZH",
                "value": "Africa Eastern and Southern"
            },
            "countryiso3code": "AFE",
            "date": "2000",
            "value": null,
            "unit": "",
            "obs_status": "",
            "decimal": 1
        },
        {
            "indicator": {
                "id": "IC.REG.COST.PC.ZS",
                "value": "Cost of business start-up procedures (% of GNI per capita)"
            },
            "country": {
                "id": "ZH",
                "value": "Africa Eastern and Southern"
            },
            "countryiso3code": "AFE",
            "date": "1999",
            "value": null,
            "unit": "",
            "obs_status": "",
            "decimal": 1
        },
        {
            "indicator": {
                "id": "IC.REG.COST.PC.ZS",
                "value": "Cost of business start-up procedures (% of GNI per capita)"
            },
            "country": {
                "id": "ZH",
                "value": "Africa Eastern and Southern"
            },
            "countryiso3code": "AFE",
            "date": "1998",
            "value": null,
            "unit": "",
            "obs_status": "",
            "decimal": 1
        },
        {
            "indicator": {
                "id": "IC.REG.COST.PC.ZS",
                "value": "Cost of business start-up procedures (% of GNI per capita)"
            },
            "country": {
                "id": "ZH",
                "value": "Africa Eastern and Southern"
            },
            "countryiso3code": "AFE",
            "date": "1997",
            "value": null,
            "unit": "",
            "obs_status": "",
            "decimal": 1
        },
        {
            "indicator": {
                "id": "IC.REG.COST.PC.ZS",
                "value": "Cost of business start-up procedures (% of GNI per capita)"
            },
            "country": {
                "id": "ZH",
                "value": "Africa Eastern and Southern"
            },
            "countryiso3code": "AFE",
            "date": "1996",
            "value": null,
            "unit": "",
            "obs_status": "",
            "decimal": 1
        },
        {
            "indicator": {
                "id": "IC.REG.COST.PC.ZS",
                "value": "Cost of business start-up procedures (% of GNI per capita)"
            },
            "country": {
                "id": "ZH",
                "value": "Africa Eastern and Southern"
            },
            "countryiso3code": "AFE",
            "date": "1995",
            "value": null,
            "unit": "",
            "obs_status": "",
            "decimal": 1
        },
        {
            "indicator": {
                "id": "IC.REG.COST.PC.ZS",
                "value": "Cost of business start-up procedures (% of GNI per capita)"
            },
            "country": {
                "id": "ZH",
                "value": "Africa Eastern and Southern"
            },
            "countryiso3code": "AFE",
            "date": "1994",
            "value": null,
            "unit": "",
            "obs_status": "",
            "decimal": 1
        },
        {
            "indicator": {
                "id": "IC.REG.COST.PC.ZS",
                "value": "Cost of business start-up procedures (% of GNI per capita)"
            },
            "country": {
                "id": "ZH",
                "value": "Africa Eastern and Southern"
            },
            "countryiso3code": "AFE",
            "date": "1993",
            "value": null,
            "unit": "",
            "obs_status": "",
            "decimal": 1
        },
        {
            "indicator": {
                "id": "IC.REG.COST.PC.ZS",
                "value": "Cost of business start-up procedures (% of GNI per capita)"
            },
            "country": {
                "id": "ZH",
                "value": "Africa Eastern and Southern"
            },
            "countryiso3code": "AFE",
            "date": "1992",
            "value": null,
            "unit": "",
            "obs_status": "",
            "decimal": 1
        },
        {
            "indicator": {
                "id": "IC.REG.COST.PC.ZS",
                "value": "Cost of business start-up procedures (% of GNI per capita)"
            },
            "country": {
                "id": "ZH",
                "value": "Africa Eastern and Southern"
            },
            "countryiso3code": "AFE",
            "date": "1991",
            "value": null,
            "unit": "",
            "obs_status": "",
            "decimal": 1
        },
        {
            "indicator": {
                "id": "IC.REG.COST.PC.ZS",
                "value": "Cost of business start-up procedures (% of GNI per capita)"
            },
            "country": {
                "id": "ZH",
                "value": "Africa Eastern and Southern"
            },
            "countryiso3code": "AFE",
            "date": "1990",
            "value": null,
            "unit": "",
            "obs_status": "",
            "decimal": 1
        },
        {
            "indicator": {
                "id": "IC.REG.COST.PC.ZS",
                "value": "Cost of business start-up procedures (% of GNI per capita)"
            },
            "country": {
                "id": "ZH",
                "value": "Africa Eastern and Southern"
            },
            "countryiso3code": "AFE",
            "date": "1989",
            "value": null,
            "unit": "",
            "obs_status": "",
            "decimal": 1
        },
        {
            "indicator": {
                "id": "IC.REG.COST.PC.ZS",
                "value": "Cost of business start-up procedures (% of GNI per capita)"
            },
            "country": {
                "id": "ZH",
                "value": "Africa Eastern and Southern"
            },
            "countryiso3code": "AFE",
            "date": "1988",
            "value": null,
            "unit": "",
            "obs_status": "",
            "decimal": 1
        },
        {
            "indicator": {
                "id": "IC.REG.COST.PC.ZS",
                "value": "Cost of business start-up procedures (% of GNI per capita)"
            },
            "country": {
                "id": "ZH",
                "value": "Africa Eastern and Southern"
            },
            "countryiso3code": "AFE",
            "date": "1987",
            "value": null,
            "unit": "",
            "obs_status": "",
            "decimal": 1
        },
        {
            "indicator": {
                "id": "IC.REG.COST.PC.ZS",
                "value": "Cost of business start-up procedures (% of GNI per capita)"
            },
            "country": {
                "id": "ZH",
                "value": "Africa Eastern and Southern"
            },
            "countryiso3code": "AFE",
            "date": "1986",
            "value": null,
            "unit": "",
            "obs_status": "",
            "decimal": 1
        },
        {
            "indicator": {
                "id": "IC.REG.COST.PC.ZS",
                "value": "Cost of business start-up procedures (% of GNI per capita)"
            },
            "country": {
                "id": "ZH",
                "value": "Africa Eastern and Southern"
            },
            "countryiso3code": "AFE",
            "date": "1985",
            "value": null,
            "unit": "",
            "obs_status": "",
            "decimal": 1
        },
        {
            "indicator": {
                "id": "IC.REG.COST.PC.ZS",
                "value": "Cost of business start-up procedures (% of GNI per capita)"
            },
            "country": {
                "id": "ZH",
                "value": "Africa Eastern and Southern"
            },
            "countryiso3code": "AFE",
            "date": "1984",
            "value": null,
            "unit": "",
            "obs_status": "",
            "decimal": 1
        },
        {
            "indicator": {
                "id": "IC.REG.COST.PC.ZS",
                "value": "Cost of business start-up procedures (% of GNI per capita)"
            },
            "country": {
                "id": "ZH",
                "value": "Africa Eastern and Southern"
            },
            "countryiso3code": "AFE",
            "date": "1983",
            "value": null,
            "unit": "",
            "obs_status": "",
            "decimal": 1
        },
        {
            "indicator": {
                "id": "IC.REG.COST.PC.ZS",
                "value": "Cost of business start-up procedures (% of GNI per capita)"
            },
            "country": {
                "id": "ZH",
                "value": "Africa Eastern and Southern"
            },
            "countryiso3code": "AFE",
            "date": "1982",
            "value": null,
            "unit": "",
            "obs_status": "",
            "decimal": 1
        },
        {
            "indicator": {
                "id": "IC.REG.COST.PC.ZS",
                "value": "Cost of business start-up procedures (% of GNI per capita)"
            },
            "country": {
                "id": "ZH",
                "value": "Africa Eastern and Southern"
            },
            "countryiso3code": "AFE",
            "date": "1981",
            "value": null,
            "unit": "",
            "obs_status": "",
            "decimal": 1
        },
        {
            "indicator": {
                "id": "IC.REG.COST.PC.ZS",
                "value": "Cost of business start-up procedures (% of GNI per capita)"
            },
            "country": {
                "id": "ZH",
                "value": "Africa Eastern and Southern"
            },
            "countryiso3code": "AFE",
            "date": "1980",
            "value": null,
            "unit": "",
            "obs_status": "",
            "decimal": 1
        },
        {
            "indicator": {
                "id": "IC.REG.COST.PC.ZS",
                "value": "Cost of business start-up procedures (% of GNI per capita)"
            },
            "country": {
                "id": "ZH",
                "value": "Africa Eastern and Southern"
            },
            "countryiso3code": "AFE",
            "date": "1979",
            "value": null,
            "unit": "",
            "obs_status": "",
            "decimal": 1
        },
        {
            "indicator": {
                "id": "IC.REG.COST.PC.ZS",
                "value": "Cost of business start-up procedures (% of GNI per capita)"
            },
            "country": {
                "id": "ZH",
                "value": "Africa Eastern and Southern"
            },
            "countryiso3code": "AFE",
            "date": "1978",
            "value": null,
            "unit": "",
            "obs_status": "",
            "decimal": 1
        },
        {
            "indicator": {
                "id": "IC.REG.COST.PC.ZS",
                "value": "Cost of business start-up procedures (% of GNI per capita)"
            },
            "country": {
                "id": "ZH",
                "value": "Africa Eastern and Southern"
            },
            "countryiso3code": "AFE",
            "date": "1977",
            "value": null,
            "unit": "",
            "obs_status": "",
            "decimal": 1
        },
        {
            "indicator": {
                "id": "IC.REG.COST.PC.ZS",
                "value": "Cost of business start-up procedures (% of GNI per capita)"
            },
            "country": {
                "id": "ZH",
                "value": "Africa Eastern and Southern"
            },
            "countryiso3code": "AFE",
            "date": "1976",
            "value": null,
            "unit": "",
            "obs_status": "",
            "decimal": 1
        },
        {
            "indicator": {
                "id": "IC.REG.COST.PC.ZS",
                "value": "Cost of business start-up procedures (% of GNI per capita)"
            },
            "country": {
                "id": "ZH",
                "value": "Africa Eastern and Southern"
            },
            "countryiso3code": "AFE",
            "date": "1975",
            "value": null,
            "unit": "",
            "obs_status": "",
            "decimal": 1
        },
        {
            "indicator": {
                "id": "IC.REG.COST.PC.ZS",
                "value": "Cost of business start-up procedures (% of GNI per capita)"
            },
            "country": {
                "id": "ZH",
                "value": "Africa Eastern and Southern"
            },
            "countryiso3code": "AFE",
            "date": "1974",
            "value": null,
            "unit": "",
            "obs_status": "",
            "decimal": 1
        },
        {
            "indicator": {
                "id": "IC.REG.COST.PC.ZS",
                "value": "Cost of business start-up procedures (% of GNI per capita)"
            },
            "country": {
                "id": "ZH",
                "value": "Africa Eastern and Southern"
            },
            "countryiso3code": "AFE",
            "date": "1973",
            "value": null,
            "unit": "",
            "obs_status": "",
            "decimal": 1
        },
        {
            "indicator": {
                "id": "IC.REG.COST.PC.ZS",
                "value": "Cost of business start-up procedures (% of GNI per capita)"
            },
            "country": {
                "id": "ZH",
                "value": "Africa Eastern and Southern"
            },
            "countryiso3code": "AFE",
            "date": "1972",
            "value": null,
            "unit": "",
            "obs_status": "",
            "decimal": 1
        },
        {
            "indicator": {
                "id": "IC.REG.COST.PC.ZS",
                "value": "Cost of business start-up procedures (% of GNI per capita)"
            },
            "country": {
                "id": "ZH",
                "value": "Africa Eastern and Southern"
            },
            "countryiso3code": "AFE",
            "date": "1971",
            "value": null,
            "unit": "",
            "obs_status": "",
            "decimal": 1
        }
    ]
]