[
    {
        "page": 1,
        "pages": 2,
        "per_page": 50,
        "total": 61,
        "sourceid": "2",
        "sourcename": "World Development Indicators",
        "lastupdated": "2021-10-28"
    },
    [
        {
            "indicator": {
                "id": "IC.REG.COST.PC.ZS",
                "value": "Cost of business start-up procedures (% of GNI per capita)"
            },
            "country": {
                "id": "CA",
                "value": "Canada"
            },
            "countryiso3code": "CAN",
            "date": "2020",
            "value": null,
            "unit": "",
            "obs_status": "",
            "decimal": 1
        },
        {
            "indicator": {
                "id": "IC.REG.COST.PC.ZS",
                "value": "Cost of business start-up procedures (% of GNI per capita)"
            },
            "country": {
                "id": "CA",
                "value": "Canada"
            },
            "countryiso3code": "CAN",
            "date": "2019",
            "value": 0.3,
            "unit": "",
            "obs_status": "",
            "decimal": 1
        },
        {
            "indicator": {
                "id": "IC.REG.COST.PC.ZS",
                "value": "Cost of business start-up procedures (% of GNI per capita)"
            },
            "country": {
                "id": "CA",
                "value": "Canada"
            },
            "countryiso3code": "CAN",
            "date": "2018",
            "value": 0.3,
            "unit": "",
            "obs_status": "",
            "decimal": 1
        },
        {
            "indicator": {
                "id": "IC.REG.COST.PC.ZS",
                "value": "Cost of business start-up procedures (% of GNI per capita)"
            },
            "country": {
                "id": "CA",
                "value": "Canada"
            },
            "countryiso3code": "CAN",
            "date": "2017",
            "value": 0.4,
            "unit": "",
            "obs_status": "",
            "decimal": 1
        },
        {
            "indicator": {
                "id": "IC.REG.COST.PC.ZS",
                "value": "Cost of business start-up procedures (% of GNI per capita)"
            },
            "country": {
                "id": "CA",
                "value": "Canada"
            },
            "countryiso3code": "CAN",
            "date": "2016",
            "value": 0.4,
            "unit": "",
            "obs_status": "",
            "decimal": 1
        },
        {
            "indicator": {
                "id": "IC.REG.COST.PC.ZS",
                "value": "Cost of business start-up procedures (% of GNI per capita)"
            },
            "country": {
                "id": "CA",
                "value": "Canada"
            },
            "countryiso3code": "CAN",
            "date": "2015",
            "value": 0.4,
            "unit": "",
            "obs_status": "",
            "decimal": 1
        },
        {
            "indicator": {
                "id": "IC.REG.COST.PC.ZS",
                "value": "Cost of business start-up procedures (% of GNI per capita)"
            },
            "country": {
                "id": "CA",
                "value": "Canada"
            },
            "countryiso3code": "CAN",
            "date": "2014",
            "value": 0.4,
            "unit": "",
            "obs_status": "",
            "decimal": 1
        },
        {
            "indicator": {
                "id": "IC.REG.COST.PC.ZS",
                "value": "Cost of business start-up procedures (% of GNI per capita)"
            },
            "country": {
                "id": "CA",
                "value": "Canada"
            },
            "countryiso3code": "CAN",
            "date": "2013",
            "value": 0.4,
            "unit": "",
            "obs_status": "",
            "decimal": 1
        },
        {
            "indicator": {
                "id": "IC.REG.COST.PC.ZS",
                "value": "Cost of business start-up procedures (% of GNI per capita)"
            },
            "country": {
                "id": "CA",
                "value": "Canada"
            },
            "countryiso3code": "CAN",
            "date": "2012",
            "value": 0.4,
            "unit": "",
            "obs_status": "",
            "decimal": 1
        },
        {
            "indicator": {
                "id": "IC.REG.COST.PC.ZS",
                "value": "Cost of business start-up procedures (% of GNI per capita)"
            },
            "country": {
                "id": "CA",
                "value": "Canada"
            },
            "countryiso3code": "CAN",
            "date": "2011",
            "value": 0.4,
            "unit": "",
            "obs_status": "",
            "decimal": 1
        },
        {
            "indicator": {
                "id": "IC.REG.COST.PC.ZS",
                "value": "Cost of business start-up procedures (% of GNI per capita)"
            },
            "country": {
                "id": "CA",
                "value": "Canada"
            },
            "countryiso3code": "CAN",
            "date": "2010",
            "value": 0.4,
            "unit": "",
            "obs_status": "",
            "decimal": 1
        },
        {
            "indicator": {
                "id": "IC.REG.COST.PC.ZS",
                "value": "Cost of business start-up procedures (% of GNI per capita)"
            },
            "country": {
                "id": "CA",
                "value": "Canada"
            },
            "countryiso3code": "CAN",
            "date": "2009",
            "value": 0.4,
            "unit": "",
            "obs_status": "",
            "decimal": 1
        },
        {
            "indicator": {
                "id": "IC.REG.COST.PC.ZS",
                "value": "Cost of business start-up procedures (% of GNI per capita)"
            },
            "country": {
                "id": "CA",
                "value": "Canada"
            },
            "countryiso3code": "CAN",
            "date": "2008",
            "value": 0.4,
            "unit": "",
            "obs_status": "",
            "decimal": 1
        },
        {
            "indicator": {
                "id": "IC.REG.COST.PC.ZS",
                "value": "Cost of business start-up procedures (% of GNI per capita)"
            },
            "country": {
                "id": "CA",
                "value": "Canada"
            },
            "countryiso3code": "CAN",
            "date": "2007",
            "value": 0.8,
            "unit": "",
            "obs_status": "",
            "decimal": 1
        },
        {
            "indicator": {
                "id": "IC.REG.COST.PC.ZS",
                "value": "Cost of business start-up procedures (% of GNI per capita)"
            },
            "country": {
                "id": "CA",
                "value": "Canada"
            },
            "countryiso3code": "CAN",
            "date": "2006",
            "value": 0.8,
            "unit": "",
            "obs_status": "",
            "decimal": 1
        },
        {
            "indicator": {
                "id": "IC.REG.COST.PC.ZS",
                "value": "Cost of business start-up procedures (% of GNI per capita)"
            },
            "country": {
                "id": "CA",
                "value": "Canada"
            },
            "countryiso3code": "CAN",
            "date": "2005",
            "value": 0.9,
            "unit": "",
            "obs_status": "",
            "decimal": 1
        },
        {
            "indicator": {
                "id": "IC.REG.COST.PC.ZS",
                "value": "Cost of business start-up procedures (% of GNI per capita)"
            },
            "country": {
                "id": "CA",
                "value": "Canada"
            },
            "countryiso3code": "CAN",
            "date": "2004",
            "value": 0.9,
            "unit": "",
            "obs_status": "",
            "decimal": 1
        },
        {
            "indicator": {
                "id": "IC.REG.COST.PC.ZS",
                "value": "Cost of business start-up procedures (% of GNI per capita)"
            },
            "country": {
                "id": "CA",
                "value": "Canada"
            },
            "countryiso3code": "CAN",
            "date": "2003",
            "value": 0.6,
            "unit": "",
            "obs_status": "",
            "decimal": 1
        },
        {
            "indicator": {
                "id": "IC.REG.COST.PC.ZS",
                "value": "Cost of business start-up procedures (% of GNI per capita)"
            },
            "country": {
                "id": "CA",
                "value": "Canada"
            },
            "countryiso3code": "CAN",
            "date": "2002",
            "value": null,
            "unit": "",
            "obs_status": "",
            "decimal": 1
        },
        {
            "indicator": {
                "id": "IC.REG.COST.PC.ZS",
                "value": "Cost of business start-up procedures (% of GNI per capita)"
            },
            "country": {
                "id": "CA",
                "value": "Canada"
            },
            "countryiso3code": "CAN",
            "date": "2001",
            "value": null,
            "unit": "",
            "obs_status": "",
            "decimal": 1
        },
        {
            "indicator": {
                "id": "IC.REG.COST.PC.ZS",
                "value": "Cost of business start-up procedures (% of GNI per capita)"
            },
            "country": {
                "id": "CA",
                "value": "Canada"
            },
            "countryiso3code": "CAN",
            "date": "2000",
            "value": null,
            "unit": "",
            "obs_status": "",
            "decimal": 1
        },
        {
            "indicator": {
                "id": "IC.REG.COST.PC.ZS",
                "value": "Cost of business start-up procedures (% of GNI per capita)"
            },
            "country": {
                "id": "CA",
                "value": "Canada"
            },
            "countryiso3code": "CAN",
            "date": "1999",
            "value": null,
            "unit": "",
            "obs_status": "",
            "decimal": 1
        },
        {
            "indicator": {
                "id": "IC.REG.COST.PC.ZS",
                "value": "Cost of business start-up procedures (% of GNI per capita)"
            },
            "country": {
                "id": "CA",
                "value": "Canada"
            },
            "countryiso3code": "CAN",
            "date": "1998",
            "value": null,
            "unit": "",
            "obs_status": "",
            "decimal": 1
        },
        {
            "indicator": {
                "id": "IC.REG.COST.PC.ZS",
                "value": "Cost of business start-up procedures (% of GNI per capita)"
            },
            "country": {
                "id": "CA",
                "value": "Canada"
            },
            "countryiso3code": "CAN",
            "date": "1997",
            "value": null,
            "unit": "",
            "obs_status": "",
            "decimal": 1
        },
        {
            "indicator": {
                "id": "IC.REG.COST.PC.ZS",
                "value": "Cost of business start-up procedures (% of GNI per capita)"
            },
            "country": {
                "id": "CA",
                "value": "Canada"
            },
            "countryiso3code": "CAN",
            "date": "1996",
            "value": null,
            "unit": "",
            "obs_status": "",
            "decimal": 1
        },
        {
            "indicator": {
                "id": "IC.REG.COST.PC.ZS",
                "value": "Cost of business start-up procedures (% of GNI per capita)"
            },
            "country": {
                "id": "CA",
                "value": "Canada"
            },
            "countryiso3code": "CAN",
            "date": "1995",
            "value": null,
            "unit": "",
            "obs_status": "",
            "decimal": 1
        },
        {
            "indicator": {
                "id": "IC.REG.COST.PC.ZS",
                "value": "Cost of business start-up procedures (% of GNI per capita)"
            },
            "country": {
                "id": "CA",
                "value": "Canada"
            },
            "countryiso3code": "CAN",
            "date": "1994",
            "value": null,
            "unit": "",
            "obs_status": "",
            "decimal": 1
        },
        {
            "indicator": {
                "id": "IC.REG.COST.PC.ZS",
                "value": "Cost of business start-up procedures (% of GNI per capita)"
            },
            "country": {
                "id": "CA",
                "value": "Canada"
            },
            "countryiso3code": "CAN",
            "date": "1993",
            "value": null,
            "unit": "",
            "obs_status": "",
            "decimal": 1
        },
        {
            "indicator": {
                "id": "IC.REG.COST.PC.ZS",
                "value": "Cost of business start-up procedures (% of GNI per capita)"
            },
            "country": {
                "id": "CA",
                "value": "Canada"
            },
            "countryiso3code": "CAN",
            "date": "1992",
            "value": null,
            "unit": "",
            "obs_status": "",
            "decimal": 1
        },
        {
            "indicator": {
                "id": "IC.REG.COST.PC.ZS",
                "value": "Cost of business start-up procedures (% of GNI per capita)"
            },
            "country": {
                "id": "CA",
                "value": "Canada"
            },
            "countryiso3code": "CAN",
            "date": "1991",
            "value": null,
            "unit": "",
            "obs_status": "",
            "decimal": 1
        },
        {
            "indicator": {
                "id": "IC.REG.COST.PC.ZS",
                "value": "Cost of business start-up procedures (% of GNI per capita)"
            },
            "country": {
                "id": "CA",
                "value": "Canada"
            },
            "countryiso3code": "CAN",
            "date": "1990",
            "value": null,
            "unit": "",
            "obs_status": "",
            "decimal": 1
        },
        {
            "indicator": {
                "id": "IC.REG.COST.PC.ZS",
                "value": "Cost of business start-up procedures (% of GNI per capita)"
            },
            "country": {
                "id": "CA",
                "value": "Canada"
            },
            "countryiso3code": "CAN",
            "date": "1989",
            "value": null,
            "unit": "",
            "obs_status": "",
            "decimal": 1
        },
        {
            "indicator": {
                "id": "IC.REG.COST.PC.ZS",
                "value": "Cost of business start-up procedures (% of GNI per capita)"
            },
            "country": {
                "id": "CA",
                "value": "Canada"
            },
            "countryiso3code": "CAN",
            "date": "1988",
            "value": null,
            "unit": "",
            "obs_status": "",
            "decimal": 1
        },
        {
            "indicator": {
                "id": "IC.REG.COST.PC.ZS",
                "value": "Cost of business start-up procedures (% of GNI per capita)"
            },
            "country": {
                "id": "CA",
                "value": "Canada"
            },
            "countryiso3code": "CAN",
            "date": "1987",
            "value": null,
            "unit": "",
            "obs_status": "",
            "decimal": 1
        },
        {
            "indicator": {
                "id": "IC.REG.COST.PC.ZS",
                "value": "Cost of business start-up procedures (% of GNI per capita)"
            },
            "country": {
                "id": "CA",
                "value": "Canada"
            },
            "countryiso3code": "CAN",
            "date": "1986",
            "value": null,
            "unit": "",
            "obs_status": "",
            "decimal": 1
        },
        {
            "indicator": {
                "id": "IC.REG.COST.PC.ZS",
                "value": "Cost of business start-up procedures (% of GNI per capita)"
            },
            "country": {
                "id": "CA",
                "value": "Canada"
            },
            "countryiso3code": "CAN",
            "date": "1985",
            "value": null,
            "unit": "",
            "obs_status": "",
            "decimal": 1
        },
        {
            "indicator": {
                "id": "IC.REG.COST.PC.ZS",
                "value": "Cost of business start-up procedures (% of GNI per capita)"
            },
            "country": {
                "id": "CA",
                "value": "Canada"
            },
            "countryiso3code": "CAN",
            "date": "1984",
            "value": null,
            "unit": "",
            "obs_status": "",
            "decimal": 1
        },
        {
            "indicator": {
                "id": "IC.REG.COST.PC.ZS",
                "value": "Cost of business start-up procedures (% of GNI per capita)"
            },
            "country": {
                "id": "CA",
                "value": "Canada"
            },
            "countryiso3code": "CAN",
            "date": "1983",
            "value": null,
            "unit": "",
            "obs_status": "",
            "decimal": 1
        },
        {
            "indicator": {
                "id": "IC.REG.COST.PC.ZS",
                "value": "Cost of business start-up procedures (% of GNI per capita)"
            },
            "country": {
                "id": "CA",
                "value": "Canada"
            },
            "countryiso3code": "CAN",
            "date": "1982",
            "value": null,
            "unit": "",
            "obs_status": "",
            "decimal": 1
        },
        {
            "indicator": {
                "id": "IC.REG.COST.PC.ZS",
                "value": "Cost of business start-up procedures (% of GNI per capita)"
            },
            "country": {
                "id": "CA",
                "value": "Canada"
            },
            "countryiso3code": "CAN",
            "date": "1981",
            "value": null,
            "unit": "",
            "obs_status": "",
            "decimal": 1
        },
        {
            "indicator": {
                "id": "IC.REG.COST.PC.ZS",
                "value": "Cost of business start-up procedures (% of GNI per capita)"
            },
            "country": {
                "id": "CA",
                "value": "Canada"
            },
            "countryiso3code": "CAN",
            "date": "1980",
            "value": null,
            "unit": "",
            "obs_status": "",
            "decimal": 1
        },
        {
            "indicator": {
                "id": "IC.REG.COST.PC.ZS",
                "value": "Cost of business start-up procedures (% of GNI per capita)"
            },
            "country": {
                "id": "CA",
                "value": "Canada"
            },
            "countryiso3code": "CAN",
            "date": "1979",
            "value": null,
            "unit": "",
            "obs_status": "",
            "decimal": 1
        },
        {
            "indicator": {
                "id": "IC.REG.COST.PC.ZS",
                "value": "Cost of business start-up procedures (% of GNI per capita)"
            },
            "country": {
                "id": "CA",
                "value": "Canada"
            },
            "countryiso3code": "CAN",
            "date": "1978",
            "value": null,
            "unit": "",
            "obs_status": "",
            "decimal": 1
        },
        {
            "indicator": {
                "id": "IC.REG.COST.PC.ZS",
                "value": "Cost of business start-up procedures (% of GNI per capita)"
            },
            "country": {
                "id": "CA",
                "value": "Canada"
            },
            "countryiso3code": "CAN",
            "date": "1977",
            "value": null,
            "unit": "",
            "obs_status": "",
            "decimal": 1
        },
        {
            "indicator": {
                "id": "IC.REG.COST.PC.ZS",
                "value": "Cost of business start-up procedures (% of GNI per capita)"
            },
            "country": {
                "id": "CA",
                "value": "Canada"
            },
            "countryiso3code": "CAN",
            "date": "1976",
            "value": null,
            "unit": "",
            "obs_status": "",
            "decimal": 1
        },
        {
            "indicator": {
                "id": "IC.REG.COST.PC.ZS",
                "value": "Cost of business start-up procedures (% of GNI per capita)"
            },
            "country": {
                "id": "CA",
                "value": "Canada"
            },
            "countryiso3code": "CAN",
            "date": "1975",
            "value": null,
            "unit": "",
            "obs_status": "",
            "decimal": 1
        },
        {
            "indicator": {
                "id": "IC.REG.COST.PC.ZS",
                "value": "Cost of business start-up procedures (% of GNI per capita)"
            },
            "country": {
                "id": "CA",
                "value": "Canada"
            },
            "countryiso3code": "CAN",
            "date": "1974",
            "value": null,
            "unit": "",
            "obs_status": "",
            "decimal": 1
        },
        {
            "indicator": {
                "id": "IC.REG.COST.PC.ZS",
                "value": "Cost of business start-up procedures (% of GNI per capita)"
            },
            "country": {
                "id": "CA",
                "value": "Canada"
            },
            "countryiso3code": "CAN",
            "date": "1973",
            "value": null,
            "unit": "",
            "obs_status": "",
            "decimal": 1
        },
        {
            "indicator": {
                "id": "IC.REG.COST.PC.ZS",
                "value": "Cost of business start-up procedures (% of GNI per capita)"
            },
            "country": {
                "id": "CA",
                "value": "Canada"
            },
            "countryiso3code": "CAN",
            "date": "1972",
            "value": null,
            "unit": "",
            "obs_status": "",
            "decimal": 1
        },
        {
            "indicator": {
                "id": "IC.REG.COST.PC.ZS",
                "value": "Cost of business start-up procedures (% of GNI per capita)"
            },
            "country": {
                "id": "CA",
                "value": "Canada"
            },
            "countryiso3code": "CAN",
            "date": "1971",
            "value": null,
            "unit": "",
            "obs_status": "",
            "decimal": 1
        }
    ]
]